-7.4177_109.5548 11.99
-7.4177_109.5860 6.95
-7.4177_109.6173 4.52
-7.4177_109.6485 5.28
-7.4177_109.6798 0.92
-7.4490_109.5548 1.40
-7.4490_109.5860 3.36
-7.4490_109.6173 3.33
-7.4490_109.6485 4.99
-7.4490_109.6798 9.28
-7.4802_109.4610 0.59
-7.4802_109.4923 5.88
-7.4802_109.5235 8.36
-7.4802_109.5548 8.83
-7.4802_109.5860 8.12
-7.4802_109.6173 10.95
-7.4802_109.6485 8.81
-7.5115_109.4610 17.05
-7.5115_109.4923 11.36
-7.5115_109.5235 22.50
-7.5115_109.5548 5.22
-7.5115_109.5860 13.90
-7.5115_109.6173 12.49